\relax 
\providecommand\babel@aux[2]{}
\@nameuse{bbl@beforestart}
\catcode `"\active 
\AC@reset@newl@bel
\providecommand\hyper@newdestlabel[2]{}
\providecommand\HyperFirstAtBeginDocument{\AtBeginDocument}
\HyperFirstAtBeginDocument{\ifx\hyper@anchor\@undefined
\global\let\oldnewlabel\newlabel
\gdef\newlabel#1#2{\newlabelxx{#1}#2}
\gdef\newlabelxx#1#2#3#4#5#6{\oldnewlabel{#1}{{#2}{#3}}}
\AtEndDocument{\ifx\hyper@anchor\@undefined
\let\newlabel\oldnewlabel
\fi}
\fi}
\global\let\hyper@last\relax 
\gdef\HyperFirstAtBeginDocument#1{#1}
\providecommand\HyField@AuxAddToFields[1]{}
\providecommand\HyField@AuxAddToCoFields[2]{}
\bibstyle{alpha}
\babel@aux{english}{}
\citation{yang2022}
\citation{Müller2017}
\citation{Yang2010}
\@writefile{toc}{\contentsline {section}{List of Figures}{II}{section*.2}\protected@file@percent }
\AC@undonewlabel{acro:RF}
\newlabel{acro:RF}{{}{II}{\listfigurename }{section*.4}{}}
\acronymused{RF}
\citation{Lee2005}
\citation{Geurts2005}
\citation{Geurts2005}
\citation{Geurts2005}
\@writefile{toc}{\contentsline {section}{List of Tables}{III}{section*.5}\protected@file@percent }
\AC@undonewlabel{acro:ML}
\newlabel{acro:ML}{{}{III}{\listtablename }{section*.7}{}}
\acronymused{ML}
\acronymused{ML}
\acronymused{ML}
\@writefile{toc}{\contentsline {section}{List of Acronyms}{IV}{section*.8}\protected@file@percent }
\newacro{RA}[\AC@hyperlink{RA}{RA}]{rheumatoid arthritis}
\newacro{IBD}[\AC@hyperlink{IBD}{IBD}]{inflammatory bowel disease}
\newacro{DT}[\AC@hyperlink{DT}{DT}]{decision tree}
\newacro{ET}[\AC@hyperlink{ET}{ET}]{extra trees}
\newacro{RF}[\AC@hyperlink{RF}{RF}]{random forest}
\newacro{ML}[\AC@hyperlink{ML}{ML}]{machine learning}
\newacro{NN}[\AC@hyperlink{NN}{NN}]{neural network}
\newacro{k-NN}[\AC@hyperlink{k-NN}{\emph  {k}-NN}]{\emph  {k}-nearest-neighbour}
\newacro{SVM}[\AC@hyperlink{SVM}{SVM}]{support vector machine}
\newacro{DL}[\AC@hyperlink{DL}{DL}]{deep learning}
\newacro{RNA}[\AC@hyperlink{RNA}{RNA}]{ribonucleic acid}
\newacro{DNA}[\AC@hyperlink{DNA}{DNA}]{deoxyribonucleic acid}
\newacro{ncRNA}[\AC@hyperlink{ncRNA}{ncRNA}]{non-coding RNA}
\newacro{ncRPI}[\AC@hyperlink{ncRPI}{ncRPI}]{ncRNA-Protein interaction}
\citation{morgan1963}
\citation{fix1952}
\citation{yang2022}
\citation{yang2022}
\citation{Hastie2017}
\@writefile{toc}{\contentsline {section}{\numberline {1}Abstract}{1}{section.1}\protected@file@percent }
\@writefile{toc}{\contentsline {section}{\numberline {2}Introduction}{1}{section.2}\protected@file@percent }
\AC@undonewlabel{acro:DT}
\newlabel{acro:DT}{{2}{1}{Introduction}{section*.10}{}}
\acronymused{DT}
\AC@undonewlabel{acro:k-NN}
\newlabel{acro:k-NN}{{2}{1}{Introduction}{section*.11}{}}
\acronymused{k-NN}
\AC@undonewlabel{acro:NN}
\newlabel{acro:NN}{{2}{1}{Introduction}{section*.12}{}}
\acronymused{NN}
\@writefile{toc}{\contentsline {section}{\numberline {3}Theoretical Basics}{1}{section.3}\protected@file@percent }
\@writefile{toc}{\contentsline {subsection}{\numberline {3.1}Machine Learning}{1}{subsection.3.1}\protected@file@percent }
\citation{Müller2017}
\citation{Müller2017}
\@writefile{lof}{\contentsline {figure}{\numberline {1}{\ignorespaces "The number of papers published in the core set of Web of Science from 1990 to 2019 for the topic of ‘ensemble learning’"\cite  {yang2022}}}{2}{figure.1}\protected@file@percent }
\newlabel{ensemble_paper}{{1}{2}{"The number of papers published in the core set of Web of Science from 1990 to 2019 for the topic of ‘ensemble learning’"\cite {yang2022}}{figure.1}{}}
\acronymused{ML}
\citation{Müller2017}
\citation{Lopez2022}
\citation{Shmueli2010}
\citation{Yang2010}
\citation{Ghavami2020}
\@writefile{lof}{\contentsline {figure}{\numberline {2}{\ignorespaces Over- versus underfitting and the ``sweet spot'' visualized.\citep  [p. 31]{Müller2017}}}{3}{figure.2}\protected@file@percent }
\newlabel{fitting}{{2}{3}{Over- versus underfitting and the ``sweet spot'' visualized.\citep [p. 31]{Müller2017}}{figure.2}{}}
\@writefile{toc}{\contentsline {subsection}{\numberline {3.2}Base learners}{3}{subsection.3.2}\protected@file@percent }
\citation{Moisen2008}
\citation{Iba1992}
\citation{Moisen2008}
\citation{Bramer2007}
\citation{Bramer2007}
\acronymused{DT}
\acronymused{DT}
\acronymused{DT}
\acronymused{DT}
\@writefile{toc}{\contentsline {subsection}{\numberline {3.3}Variable Importance Measure}{4}{subsection.3.3}\protected@file@percent }
\newlabel{variable importance measure}{{3.3}{4}{\nmu Variable \nmu Importance \nmu Measure}{subsection.3.3}{}}
\citation{Breiman1984}
\citation{chen2007}
\citation{Boulesteix2012}
\citation{Breiman2001}
\citation{Boulesteix2012}
\citation{Janitza2018}
\citation{Ishwaran2015}
\citation{Mingers1989}
\citation{Nembrini2018}
\citation{Yang2010}
\citation{Breiman1996}
\@writefile{toc}{\contentsline {subsection}{\numberline {3.4}Ensemble methods}{5}{subsection.3.4}\protected@file@percent }
\acronymused{RF}
\@writefile{toc}{\contentsline {subsubsection}{\numberline {3.4.1}Bagging}{5}{subsubsection.3.4.1}\protected@file@percent }
\newlabel{Bagging}{{3.4.1}{5}{\nmu Bagging}{subsubsection.3.4.1}{}}
\citation{jukes2018}
\citation{ho1998}
\citation{Breiman2001}
\citation{biau2016}
\citation{Nembrini2018}
\citation{Breiman2001}
\@writefile{lof}{\contentsline {figure}{\numberline {3}{\ignorespaces Basic concepts of bagging, boosting and \ac {RF}s respectively \citep  {Yang2010}.}}{6}{figure.3}\protected@file@percent }
\acronymused{RF}
\newlabel{ensembles}{{3}{6}{Basic concepts of bagging, boosting and \ac {RF}s respectively \citep {Yang2010}}{figure.3}{}}
\@writefile{toc}{\contentsline {subsubsection}{\numberline {3.4.2}Random subspace method}{6}{subsubsection.3.4.2}\protected@file@percent }
\newlabel{Random subspace method}{{3.4.2}{6}{\nmu Random subspace method}{subsubsection.3.4.2}{}}
\acronymused{DT}
\@writefile{toc}{\contentsline {subsubsection}{\numberline {3.4.3}Random Forests}{6}{subsubsection.3.4.3}\protected@file@percent }
\acronymused{RF}
\acronymused{DT}
\citation{freund1997}
\citation{schapire1999}
\citation{freund1997}
\citation{schapire1998}
\citation{alpaydin2021}
\citation{hansen1990}
\citation{zhou2002}
\citation{jimenez1998}
\citation{merz1996}
\citation{ueda2000}
\citation{wolpert1992}
\citation{wolpert1992}
\citation{mellouk2009}
\citation{dvzeroski2002}
\@writefile{toc}{\contentsline {subsubsection}{\numberline {3.4.4}Boosting}{7}{subsubsection.3.4.4}\protected@file@percent }
\newlabel{Boosting}{{3.4.4}{7}{\nmu Boosting}{subsubsection.3.4.4}{}}
\@writefile{toc}{\contentsline {subsubsection}{\numberline {3.4.5}Neural Networks}{7}{subsubsection.3.4.5}\protected@file@percent }
\acronymused{NN}
\citation{dong2018}
\citation{geron2022}
\citation{Hastie2017}
\citation{dua2019}
\citation{verma2017}
\@writefile{toc}{\contentsline {subsubsection}{\numberline {3.4.6}Stacking}{8}{subsubsection.3.4.6}\protected@file@percent }
\newlabel{stacking}{{3.4.6}{8}{\nmu Stacking}{subsubsection.3.4.6}{}}
\acronymused{NN}
\AC@undonewlabel{acro:DL}
\newlabel{acro:DL}{{3.4.6}{8}{\nmu Stacking}{section*.13}{}}
\acronymused{DL}
\@writefile{lof}{\contentsline {figure}{\numberline {4}{\ignorespaces Basic concept of stacking.}}{8}{figure.4}\protected@file@percent }
\newlabel{stacking_fig}{{4}{8}{Basic concept of stacking}{figure.4}{}}
\citation{brown1999}
\citation{Lee2005}
\citation{Lee2005}
\citation{Lee2005}
\citation{halawani2012}
\citation{Geurts2005}
\citation{Geurts2005}
\@writefile{toc}{\contentsline {section}{\numberline {4}Practical applications}{9}{section.4}\protected@file@percent }
\acronymused{ML}
\@writefile{toc}{\contentsline {subsection}{\numberline {4.1}Microarrays}{9}{subsection.4.1}\protected@file@percent }
\acronymused{ML}
\acronymused{RF}
\@writefile{toc}{\contentsline {subsection}{\numberline {4.2}Severity of Parkinson Disease}{9}{subsection.4.2}\protected@file@percent }
\@writefile{toc}{\contentsline {subsection}{\numberline {4.3}Mass spectrometry}{9}{subsection.4.3}\protected@file@percent }
\citation{Geurts2005}
\citation{Geurts2005}
\citation{Geurts2005}
\citation{Geurts2005}
\citation{Geurts2005}
\citation{Geurts2005}
\@writefile{lot}{\contentsline {table}{\numberline {1}{\ignorespaces Error rates of different \ac {ML} methods on public datasets. C signifies the size of the target variable. \cite  {Lee2005}.(truncated and modified)}}{10}{table.1}\protected@file@percent }
\acronymused{ML}
\newlabel{microarray_data}{{1}{10}{Error rates of different \ac {ML} methods on public datasets. C signifies the size of the target variable. \cite {Lee2005}.(truncated and modified)}{table.1}{}}
\AC@undonewlabel{acro:RA}
\newlabel{acro:RA}{{4.3}{10}{Mass spectrometry}{section*.14}{}}
\acronymused{RA}
\AC@undonewlabel{acro:IBD}
\newlabel{acro:IBD}{{4.3}{10}{Mass spectrometry}{section*.15}{}}
\acronymused{IBD}
\acronymused{ML}
\citation{omenn2021}
\citation{schmidt2017}
\citation{yi2020}
\citation{faghihi2008}
\citation{lewis2009}
\citation{shahrouki2012}
\citation{pancaldi2011}
\citation{muppirala2011}
\citation{fan2019}
\citation{pan2016}
\@writefile{lot}{\contentsline {table}{\numberline {2}{\ignorespaces Comparison of variable importance measured by single CART(left) and boosting(right) on both datasets with two different preprocessing methods(r and peak)\citep  {Geurts2005}.}}{11}{table.2}\protected@file@percent }
\newlabel{mass_spectrometry_attributes}{{2}{11}{Comparison of variable importance measured by single CART(left) and boosting(right) on both datasets with two different preprocessing methods(r and peak)\citep {Geurts2005}}{table.2}{}}
\@writefile{lot}{\contentsline {table}{\numberline {3}{\ignorespaces Accuracy of different \ac {ML} algorithms on two datasets with peak detection and alignment applied beforehand\citep  {Geurts2005}.}}{11}{table.3}\protected@file@percent }
\acronymused{ML}
\newlabel{mass_spectrometry_data_peak}{{3}{11}{Accuracy of different \ac {ML} algorithms on two datasets with peak detection and alignment applied beforehand\citep {Geurts2005}}{table.3}{}}
\@writefile{lot}{\contentsline {table}{\numberline {4}{\ignorespaces Accuracy of different \ac {ML} algorithms on two datasets with the best discretization \citep  {Geurts2005}.}}{11}{table.4}\protected@file@percent }
\acronymused{ML}
\newlabel{mass_spectrometry_data_r}{{4}{11}{Accuracy of different \ac {ML} algorithms on two datasets with the best discretization \citep {Geurts2005}}{table.4}{}}
\@writefile{toc}{\contentsline {subsection}{\numberline {4.4}Non-coding RNA interaction with proteins}{11}{subsection.4.4}\protected@file@percent }
\AC@undonewlabel{acro:DNA}
\newlabel{acro:DNA}{{4.4}{11}{Non-coding RNA interaction with proteins}{section*.16}{}}
\acronymused{DNA}
\citation{Lee2005}
\citation{yang2022}
\citation{yang2021}
\AC@undonewlabel{acro:ncRNA}
\newlabel{acro:ncRNA}{{4.4}{12}{Non-coding RNA interaction with proteins}{section*.17}{}}
\acronymused{ncRNA}
\acronymused{ncRNA}
\AC@undonewlabel{acro:ncRPI}
\newlabel{acro:ncRPI}{{4.4}{12}{Non-coding RNA interaction with proteins}{section*.18}{}}
\acronymused{ncRPI}
\acronymused{ncRPI}
\acronymused{ML}
\acronymused{RF}
\acronymused{ncRPI}
\AC@undonewlabel{acro:RNA}
\newlabel{acro:RNA}{{4.4}{12}{Non-coding RNA interaction with proteins}{section*.19}{}}
\acronymused{RNA}
\acronymused{DNA}
\acronymused{RF}
\acronymused{RNA}
\acronymused{ncRNA}
\acronymused{NN}
\acronymused{RF}
\acronymused{NN}
\acronymused{ncRPI}
\@writefile{toc}{\contentsline {section}{\numberline {5}Discussion}{12}{section.5}\protected@file@percent }
\acronymused{DT}
\acronymused{RF}
\acronymused{NN}
\AC@undonewlabel{acro:SVM}
\newlabel{acro:SVM}{{5}{12}{Discussion}{section*.20}{}}
\acronymused{SVM}
\acronymused{SVM}
\acronymused{ML}
\acronymused{DL}
\acronymused{ML}
\acronymused{DL}
\acronymused{NN}
\acronymused{NN}
\acronymused{ML}
\acronymused{DL}
\acronymused{DL}
\acronymused{ML}
\acronymused{DL}
\@writefile{toc}{\contentsline {section}{\numberline {6}Conclusion}{13}{section.6}\protected@file@percent }
\acronymused{RF}
\acronymused{ML}
\acronymused{NN}
\acronymused{NN}
\acronymused{ML}
\acronymused{ML}
\bibdata{Sources.bib}
\bibcite{alpaydin2021}{{Alp21}{}{{}}{{}}}
\bibcite{brown1999}{{BB99}{}{{}}{{}}}
\bibcite{Breiman1984}{{BFOS84}{}{{}}{{}}}
\bibcite{Boulesteix2012}{{BJKK12}{}{{}}{{}}}
\bibcite{Bramer2007}{{Bra07}{}{{}}{{}}}
\bibcite{Breiman1996}{{Bre96}{}{{}}{{}}}
\bibcite{Breiman2001}{{Bre01}{}{{}}{{}}}
\bibcite{biau2016}{{BS16}{}{{}}{{}}}
\bibcite{chen2007}{{CLZZ07}{}{{}}{{}}}
\bibcite{dua2019}{{DG17}{}{{}}{{}}}
\bibcite{dong2018}{{DL18}{}{{}}{{}}}
\bibcite{dvzeroski2002}{{D{\v {Z}}02}{}{{}}{{}}}
\bibcite{fix1952}{{FHJ52}{}{{}}{{}}}
\bibcite{faghihi2008}{{FMK{$^{+}$}08}{}{{}}{{}}}
\bibcite{freund1997}{{FS97}{}{{}}{{}}}
\@writefile{toc}{\contentsline {section}{Literature}{14}{section.6}\protected@file@percent }
\bibcite{fan2019}{{FZ19}{}{{}}{{}}}
\bibcite{geron2022}{{G{\'e}r22}{}{{}}{{}}}
\bibcite{Geurts2005}{{GFdS{$^{+}$}05}{}{{}}{{}}}
\bibcite{Ghavami2020}{{Gha20}{}{{}}{{}}}
\bibcite{halawani2012}{{HA12}{}{{}}{{}}}
\bibcite{ho1998}{{Ho98}{}{{}}{{}}}
\bibcite{hansen1990}{{HS90}{}{{}}{{}}}
\bibcite{Hastie2017}{{HTF17}{}{{}}{{}}}
\bibcite{Iba1992}{{IL92}{}{{}}{{}}}
\bibcite{Ishwaran2015}{{Ish15}{}{{}}{{}}}
\bibcite{Janitza2018}{{JCB18}{}{{}}{{}}}
\bibcite{jimenez1998}{{Jim98}{}{{}}{{}}}
\bibcite{jukes2018}{{Juk18}{}{{}}{{}}}
\bibcite{Lopez2022}{{LLC22}{}{{}}{{}}}
\bibcite{Lee2005}{{LLPS05}{}{{}}{{}}}
\bibcite{lewis2009}{{LQG{$^{+}$}09}{}{{}}{{}}}
\bibcite{mellouk2009}{{MC09}{}{{}}{{}}}
\bibcite{Müller2017}{{MG17}{}{{}}{{}}}
\bibcite{muppirala2011}{{MHD11}{}{{}}{{}}}
\bibcite{Mingers1989}{{Min89}{}{{}}{{}}}
\bibcite{Moisen2008}{{Moi08}{}{{}}{{}}}
\bibcite{merz1996}{{MP96}{}{{}}{{}}}
\bibcite{morgan1963}{{MS63}{}{{}}{{}}}
\bibcite{Nembrini2018}{{NKW18}{}{{}}{{}}}
\bibcite{omenn2021}{{Ome21}{}{{}}{{}}}
\bibcite{pancaldi2011}{{PB11}{}{{}}{{}}}
\bibcite{pan2016}{{PFYS16}{}{{}}{{}}}
\bibcite{schapire1999}{{Sch99}{}{{}}{{}}}
\bibcite{schmidt2017}{{Sch17}{}{{}}{{}}}
\bibcite{Shmueli2010}{{Shm10}{}{{}}{{}}}
\bibcite{shahrouki2012}{{SL12}{}{{}}{{}}}
\bibcite{schapire1998}{{SS98}{}{{}}{{}}}
\bibcite{ueda2000}{{Ued00}{}{{}}{{}}}
\bibcite{verma2017}{{VM17}{}{{}}{{}}}
\bibcite{wolpert1992}{{Wol92}{}{{}}{{}}}
\bibcite{Yang2010}{{YHYBZYZ10}{}{{}}{{}}}
\bibcite{yang2021}{{YLC{$^{+}$}21}{}{{}}{{}}}
\bibcite{yang2022}{{YLC22}{}{{}}{{}}}
\bibcite{yi2020}{{YYW{$^{+}$}20}{}{{}}{{}}}
\bibcite{zhou2002}{{ZWT02}{}{{}}{{}}}
\newlabel{LastPage}{{}{19}{}{page.19}{}}
\xdef\lastpage@lastpage{19}
\xdef\lastpage@lastpageHy{19}
\providecommand\NAT@force@numbers{}\NAT@force@numbers
\gdef \@abspage@last{24}
